digraph dot
{
  graph [bgcolor="#000000", fontname=Inconsolata, fontsize=10, fontcolor="#cfff00", color="yellow", label="GraphViz dot example 🄯 CC-BY-SA OSiUX.com"];
	node  [fontname="Inconsolata", fontsize="14", fontcolor="#ffff00", color="#cfff00", penwidth="2"];
	edge  [fontname="Inconsolata", fontsize="28", fontcolor="#ffff66", color="#ffff66", style="filled", arrowsize="1", penwidth="1"];

  nodo1 -> nodo2;
  nodo2 -> nodo3;
  nodo2 -> nodo4;
  nodo1 -> nodo5;
  nodo5 -> nodo6;
  nodo5 -> nodo7;
  nodo1 -> nodo8;
}
